<?xml version="1.0" encoding="UTF-8" standalone="no"?>
<svg
   width="59.622379mm"
   height="17.142233mm"
   viewBox="0 0 59.622379 17.142233"
   version="1.1"
   id="svg610"
   xmlns="http://www.w3.org/2000/svg"
   xmlns:svg="http://www.w3.org/2000/svg">
  <defs
     id="defs607" />
  <path
     id="rect17381"
     style="fill:#000000;fill-opacity:1;stroke:none;stroke-width:4.49796;paint-order:stroke markers fill;stop-color:#000000"
     d="M -197.19911 -653.76865 C -201.36008 -653.76865 -204.88466 -653.13244 -207.77422 -651.86103 C -210.66378 -650.58963 -212.87964 -648.54793 -214.42074 -645.73543 C -215.92331 -642.92293 -216.67564 -639.18546 -216.67564 -634.52364 C -216.67564 -629.93889 -215.92331 -626.24012 -214.42074 -623.42762 C -212.87964 -620.61512 -210.66378 -618.57342 -207.77422 -617.30202 C -204.88466 -616.03061 -201.36008 -615.3944 -197.19911 -615.3944 C -193.03816 -615.3944 -189.51355 -616.03061 -186.62401 -617.30202 C -183.73445 -618.57342 -181.53792 -620.61512 -180.03537 -623.42762 C -178.49427 -626.24012 -177.72259 -629.93889 -177.72259 -634.52364 C -177.72259 -639.18546 -178.49427 -642.92293 -180.03537 -645.73543 C -181.53792 -648.54793 -183.73445 -650.58963 -186.62401 -651.86103 C -189.51355 -653.13244 -193.03816 -653.76865 -197.19911 -653.76865 z M -252.41395 -653.18985 L -252.41395 -615.9732 L -239.98911 -615.9732 L -239.98911 -625.10372 L -232.59256 -625.10372 C -229.74153 -625.10372 -227.27408 -625.70123 -225.1936 -626.89558 C -223.11313 -628.12846 -221.49476 -629.80487 -220.33894 -631.92388 C -219.18312 -634.04289 -218.60496 -636.43051 -218.60496 -639.08891 C -218.60496 -641.67023 -219.10813 -644.02158 -220.10983 -646.14059 C -221.11155 -648.29811 -222.63314 -650.01324 -224.6751 -651.28465 C -226.67852 -652.55604 -229.24032 -653.18985 -232.36104 -653.18985 L -252.41395 -653.18985 z M -177.73947 -653.18985 L -169.06957 -615.9732 L -158.08931 -615.9732 L -152.65826 -632.90542 L -147.62996 -615.9732 L -136.59181 -615.9732 L -127.97979 -653.18985 L -140.11765 -653.18985 L -143.93048 -636.14186 L -148.84302 -653.18985 L -158.9575 -653.18985 L -158.9575 -647.23789 L -162.07818 -636.19974 L -165.60161 -653.18985 L -177.73947 -653.18985 z M -125.67666 -653.18985 L -125.67666 -615.9732 L -96.722335 -615.9732 L -96.722335 -625.1616 L -113.25182 -625.1616 L -113.25182 -629.84262 L -98.861473 -629.84262 L -98.861473 -639.26255 L -113.25182 -639.26255 L -113.25182 -644.00145 L -96.722335 -644.00145 L -96.722335 -653.18985 L -125.67666 -653.18985 z M -93.93205 -653.18985 L -93.93205 -615.9732 L -81.507204 -615.9732 L -81.507204 -626.14556 L -79.715345 -626.14556 C -79.060378 -626.14556 -78.578983 -626.02944 -78.270763 -625.79828 C -77.962545 -625.56711 -77.674671 -625.16313 -77.404979 -624.58521 L -73.589741 -615.9732 L -60.643978 -615.9732 L -64.980133 -625.91404 C -65.48099 -627.03133 -66.095441 -627.87801 -66.827461 -628.45592 C -64.901091 -629.57322 -63.302083 -631.07547 -62.030679 -632.9633 C -60.759275 -634.88968 -60.125472 -637.10555 -60.125472 -639.60982 C -60.125472 -642.22969 -60.626221 -644.56168 -61.627933 -646.60362 C -62.591118 -648.64558 -64.093364 -650.24458 -66.135316 -651.40041 C -68.13874 -652.59475 -70.700541 -653.18985 -73.82126 -653.18985 L -93.93205 -653.18985 z M -14.318499 -653.12956 C -36.207435 -653.12956 -53.831053 -635.50595 -53.831053 -613.61701 C -53.831053 -591.72807 -36.207435 -574.10687 -14.318499 -574.10687 L -13.674587 -574.10687 C 8.214349 -574.10687 25.833144 -591.72807 25.833144 -613.61701 C 25.833144 -635.50595 8.214349 -653.12956 -13.674587 -653.12956 L -14.318499 -653.12956 z M -10.262095 -644.53201 L -10.262095 -620.02719 L 6.0720435 -620.02719 L -18.432782 -583.27115 L -18.432782 -607.77598 L -34.764509 -607.77598 L -10.262095 -644.53201 z M -239.98911 -643.53841 L -235.2502 -643.53841 C -233.90175 -643.53841 -232.90025 -643.13442 -232.24528 -642.32535 C -231.59032 -641.5548 -231.26133 -640.47589 -231.26133 -639.08891 C -231.26133 -637.77897 -231.62902 -636.71942 -232.36104 -635.91035 C -233.05454 -635.1398 -234.09474 -634.75516 -235.48172 -634.75516 L -239.98911 -634.75516 L -239.98911 -643.53841 z M -81.507204 -643.53841 L -76.652543 -643.53841 C -74.071207 -643.53841 -72.781837 -642.22969 -72.781837 -639.60982 C -72.781837 -637.0285 -74.16797 -635.73671 -76.941941 -635.73671 L -81.507204 -635.73671 L -81.507204 -643.53841 z M -197.19911 -643.19354 C -194.81042 -643.19354 -193.09529 -642.53797 -192.05505 -641.22805 C -190.97629 -639.95664 -190.43683 -637.72142 -190.43683 -634.52364 C -190.43683 -631.47999 -190.97629 -629.28346 -192.05505 -627.935 C -193.09529 -626.58654 -194.81042 -625.91404 -197.19911 -625.91404 C -199.62634 -625.91404 -201.38016 -626.58654 -202.45893 -627.935 C -203.49917 -629.28346 -204.01927 -631.47999 -204.01927 -634.52364 C -204.01927 -637.72142 -203.49917 -639.95664 -202.45893 -641.22805 C -201.38016 -642.53797 -199.62634 -643.19354 -197.19911 -643.19354 z M -172.60264 -611.56469 L -172.60264 -574.34562 L -160.17539 -574.34562 L -160.17539 -584.51798 L -158.38594 -584.51798 C -157.73097 -584.51798 -157.24717 -584.40187 -156.93895 -584.1707 C -156.63073 -583.93954 -156.34285 -583.53555 -156.07316 -582.95764 L -152.25792 -574.34562 L -139.31457 -574.34562 L -143.64832 -584.28646 C -144.14917 -585.40376 -144.76603 -586.25043 -145.49806 -586.82835 C -143.57168 -587.94563 -141.97268 -589.4503 -140.70127 -591.33814 C -139.42987 -593.26451 -138.79365 -595.47797 -138.79365 -597.98225 C -138.79365 -600.60211 -139.2944 -602.9341 -140.29612 -604.97605 C -141.25929 -607.018 -142.76154 -608.61701 -144.8035 -609.77283 C -146.80692 -610.96718 -149.36873 -611.56469 -152.48944 -611.56469 L -172.60264 -611.56469 z M -135.92379 -611.56469 L -135.92379 -588.85172 C -135.92379 -585.5769 -135.15211 -582.82157 -133.61101 -580.58698 C -132.03138 -578.35239 -129.87599 -576.65904 -127.14054 -575.50321 C -124.40509 -574.3474 -121.30384 -573.76923 -117.83637 -573.76923 C -114.33039 -573.76923 -111.22671 -574.3474 -108.5298 -575.50321 C -105.79435 -576.65904 -103.6583 -578.35239 -102.11721 -580.58698 C -100.53758 -582.82157 -99.74655 -585.5769 -99.74655 -588.85172 L -99.74655 -611.56469 L -112.1714 -611.56469 L -112.1714 -590.29631 C -112.1714 -586.28945 -114.0607 -584.28646 -117.83637 -584.28646 C -121.61206 -584.28646 -123.49894 -586.28945 -123.49894 -590.29631 L -123.49894 -611.56469 L -135.92379 -611.56469 z M -96.03019 -611.56469 L -96.03019 -574.34562 L -83.605344 -574.34562 L -83.605344 -591.4539 L -71.467485 -574.34562 L -60.892378 -574.34562 L -60.892378 -611.56469 L -73.317224 -611.56469 L -73.317224 -594.40094 L -85.568431 -611.56469 L -96.03019 -611.56469 z M -160.17539 -601.91325 L -155.32073 -601.91325 C -152.73939 -601.91325 -151.45002 -600.60211 -151.45002 -597.98225 C -151.45002 -595.40091 -152.83616 -594.11154 -155.61012 -594.11154 L -160.17539 -594.11154 L -160.17539 -601.91325 z "
     transform="matrix(0.21427789,0,0,0.21427789,54.086728,140.08817)" />
</svg>
